3 Diagnostic Frequency Analysis – NeuroColombia Data Analysis
…
3.2.1 Data Preparation

We group the full dataset by diagnostic category and compute the total number of consultations associated with each condition. This step collapses the dataset across departments and years, allowing us to quantify the overall importance of each diagnostic group at the national level.

Code

Summary_Diagnostic <- Neuro_Data %>%
  group_by(Diagnostic) %>%
  summarise(Total_Cases = sum(Cases, na.rm = TRUE)) %>%
  ungroup()

Summary_Diagnostic

# A tibble: 51 × 2
   Diagnostic Total_Cases
   <chr>            <int>
 1 F700             24236
 2 F701             11144
 3 F708              7298
 4 F709              7252
 5 F710             12251
 6 F711             10112
 7 F718              4458
 8 F719              5700
 9 F720              2327
10 F721              5306
# ℹ 41 more rows
…
