4 Deep Dive: Top 3 Diagnostics – NeuroColombia Data Analysis
…
Summary_Diagnostic_Sex <- Neuro_Data_MainDiag %>%
  group_by(Department, Diagnostic, Sex) %>%
  summarise(MedianCases = median(Diagnostics_per_tenthousand, na.rm = TRUE),
            Total_Population = sum(Population, na.rm = TRUE)) %>%
  ungroup() 

`summarise()` has grouped output by 'Department', 'Diagnostic'. You can
override using the `.groups` argument.

Code

Summary_Diagnostic_Sex

# A tibble: 192 × 5
   Department Diagnostic Sex   MedianCases Total_Population
   <chr>      <chr>      <chr>       <dbl>            <int>
 1 Amazonas   F808       Men          34              33115
 2 Amazonas   F808       Women        18              26885
 3 Amazonas   F809       Men          34              35787
 4 Amazonas   F809       Women        18              20988
 5 Amazonas   F900       Men          18              14201
 6 Amazonas   F900       Women        18               2250
 7 Antioquia  F808       Men          51            3128599
 8 Antioquia  F808       Women        32            2450118
 9 Antioquia  F809       Men          48            2929082
10 Antioquia  F809       Women        31.5          2298031
# ℹ 182 more rows
…
Code

Summary_Diagnostic_Sex_2 <- Neuro_Data_MainDiag %>%
  group_by(City, Department, Diagnostic, Sex) %>%
  summarise(MeanCases = mean(Diagnostics_per_tenthousand, na.rm = TRUE)) %>%
  ungroup() 

`summarise()` has grouped output by 'City', 'Department', 'Diagnostic'. You can
override using the `.groups` argument.

Code

Summary_Diagnostic_Sex_2

# A tibble: 6,091 × 5
   City      Department         Diagnostic Sex   MeanCases
   <chr>     <chr>              <chr>      <chr>     <dbl>
 1 Abejorral Antioquia          F808       Men        99.6
 2 Abejorral Antioquia          F808       Women      74.6
 3 Abejorral Antioquia          F809       Men        97.9
 4 Abejorral Antioquia          F809       Women      82.4
 5 Abejorral Antioquia          F900       Men        94.2
 6 Abejorral Antioquia          F900       Women      76.8
 7 Abrego    Norte de Santander F808       Men        56.4
 8 Abrego    Norte de Santander F808       Women      40.3
 9 Abrego    Norte de Santander F809       Men        56.4
10 Abrego    Norte de Santander F809       Women      39.9
# ℹ 6,081 more rows
…
Code

Summary_Main_YearSex <- Neuro_Data_MainDiag %>%
  group_by(Year, Sex, Diagnostic) %>%
  summarise(MedianCases = median(Diagnostics_per_tenthousand, na.rm = TRUE)) %>%
  ungroup()

`summarise()` has grouped output by 'Year', 'Sex'. You can override using the
`.groups` argument.

Code

Summary_Main_YearSex

# A tibble: 42 × 4
    Year Sex   Diagnostic MedianCases
   <int> <chr> <chr>            <dbl>
 1  2016 Men   F808                52
 2  2016 Men   F809                54
 3  2016 Men   F900                60
 4  2016 Women F808                34
 5  2016 Women F809                38
 6  2016 Women F900                36
 7  2017 Men   F808                60
 8  2017 Men   F809                59
 9  2017 Men   F900                68
10  2017 Women F808                36
# ℹ 32 more rows
…
This aggregation gives us a smooth age profile for each sex and reduces the influence of highly variable single-city measurements.

Code

Summary_Age_Sex <- Neuro_Data_MainDiag %>%
  group_by(City, Department, Age, Sex) %>%
  summarise(
    MeanCases       = mean(Diagnostics_per_tenthousand, na.rm = TRUE),
    Total_Population = sum(Population, na.rm = TRUE)
  ) %>%
  ungroup()

Summary_Age_Sex

# A tibble: 19,164 × 6
   City      Department   Age Sex   MeanCases Total_Population
   <chr>     <chr>      <int> <chr>     <dbl>            <int>
 1 Abejorral Antioquia      1 Women      76.5              262
 2 Abejorral Antioquia      2 Men        77.7              774
 3 Abejorral Antioquia      2 Women      77.3              388
 4 Abejorral Antioquia      3 Men        98.3              918
 5 Abejorral Antioquia      3 Women      75.5              265
 6 Abejorral Antioquia      4 Men       124.              1219
 7 Abejorral Antioquia      4 Women      75                534
 8 Abejorral Antioquia      5 Men        82.5              848
 9 Abejorral Antioquia      5 Women      75                266
10 Abejorral Antioquia      6 Men        85.5             1166
# ℹ 19,154 more rows
…
